##########
# UXC PP #
##########

X5V33-47 (GE11_DAQ_PP_X5V32_MINUS)

  1  GE11-X5-MINUS-DAQ-1
  2  ---
  3  GE11-X5-MINUS-DAQ-2
  4  GE11-X5-MINUS-DAQ-3
  5  GE11-X5-MINUS-TRIG-1
  6  ---
  7  GE-1/1/01-X5V31-DAQ
  8  GE-1/1/02-X5V31-DAQ
  9  GE-1/1/03-X5V31-DAQ
  10 GE-1/1/04-X5V31-DAQ
  11 GE-1/1/05-X5V31-DAQ
  12 GE-1/1/06-X5V31-DAQ

  13 ---
  14 ---
  15 ---
  16 ---

  17 GE11-X5-MINUS-DAQ-4
  18 --
  19 GE11-X5-MINUS-DAQ-5
  20 GE11-X5-MINUS-DAQ-6
  21 GE11-X5-MINUS-TRIG-2
  22 ---
  23 GE-1/1/07-X5V31-DAQ
  24 GE-1/1/08-X5V31-DAQ
  25 GE-1/1/09-X5V31-DAQ
  26 GE-1/1/10-X5V31-DAQ
  27 GE-1/1/11-X5V31-DAQ
  28 GE-1/1/12-X5V31-DAQ

  29 ---
  30 ---
  31 ---
  32 ---

  33 GE11-X5-MINUS-DAQ-7
  34 ---
  35 GE11-X5-MINUS-DAQ-8
  36 GE11-X5-MINUS-DAQ-9
  37 GE11-X5-MINUS-TRIG-3
  38 ---
  39 GE-1/1/13-X5V31-DAQ
  40 GE-1/1/14-X5V31-DAQ
  41 GE-1/1/15-X5V31-DAQ
  42 GE-1/1/16-X5V31-DAQ
  43 GE-1/1/17-X5V31-DAQ
  44 GE-1/1/18-X5V31-DAQ

  45 ---
  46 ---
  47 ---
  48 ---

X2V33-47 (GE11_DAQ_PP_X2V31_MINUS)

  1  GE11-X2-MINUS-SPARE-1
  2  ---
  3  GE11-X2-MINUS-DAQ-2
  4  GE11-X2-MINUS-DAQ-3
  5  GE11-X2-MINUS-TRIG-1
  6  ---
  7  GE-1/1/19-X2V31-DAQ
  8  GE-1/1/20-X2V31-DAQ
  9  GE-1/1/21-X2V31-DAQ
  10 GE-1/1/22-X2V31-DAQ
  11 GE-1/1/23-X2V31-DAQ
  12 GE-1/1/24-X2V31-DAQ

  13 ---
  14 ---
  15 ---
  16 ---

  17 GE11-X2-MINUS-DAQ-4
  18 --
  19 GE11-X2-MINUS-DAQ-5
  20 GE11-X2-MINUS-DAQ-6
  21 GE11-X2-MINUS-TRIG-2
  22 ---
  23 GE-1/1/25-X2V31-DAQ
  24 GE-1/1/26-X2V31-DAQ
  25 GE-1/1/27-X2V31-DAQ
  26 GE-1/1/28-X2V31-DAQ
  27 GE-1/1/29-X2V31-DAQ
  28 GE-1/1/30-X2V31-DAQ

  29 ---
  30 ---
  31 ---
  32 ---

  33 GE11-X2-MINUS-DAQ-7
  34 ---
  35 GE11-X2-MINUS-SPARE-2
  36 GE11-X2-MINUS-DAQ-9
  37 GE11-X2-MINUS-TRIG-3
  38 ---
  39 GE-1/1/31-X2V31-DAQ
  40 GE-1/1/32-X2V31-DAQ
  41 GE-1/1/33-X2V31-DAQ
  42 GE-1/1/34-X2V31-DAQ
  43 GE-1/1/35-X2V31-DAQ
  44 GE-1/1/36-X2V31-DAQ

  45 ---
  46 ---
  47 ---
  48 ---

X2V33-46

  Left  Aqua  GE-2/1/16/Ly1-X2V33-DAQ
  Left  Green GE-2/1/18/Ly1-X2V33-DAQ
  Left  Pink  (empty)

  Right Aqua  GE11-X2-MINUS-SPARE-3
  Right Pink  GE11-X2-MINUS-SPARE-4

X5J33-47 (GE11_DAQ_PP_X5J32_PLUS)

  1  GE11-X5-PLUS-DAQ-1
  2  ---
  3  GE11-X5-PLUS-DAQ-2
  4  GE11-X5-PLUS-DAQ-3
  5  GE11-X5-PLUS-TRIG-1
  6  ---
  7  GE+1/1/01-X5V31-DAQ
  8  GE+1/1/02-X5V31-DAQ
  9  GE+1/1/03-X5V31-DAQ
  10 GE+1/1/04-X5V31-DAQ
  11 GE+1/1/05-X5V31-DAQ
  12 GE+1/1/06-X5V31-DAQ

  13 ---
  14 ---
  15 ---
  16 ---

  17 GE11-X5-PLUS-DAQ-4
  18 --
  19 GE11-X5-PLUS-DAQ-5
  20 GE11-X5-PLUS-DAQ-6
  21 GE11-X5-PLUS-TRIG-2
  22 ---
  23 GE+1/1/07-X5V31-DAQ
  24 GE+1/1/08-X5V31-DAQ
  25 GE+1/1/09-X5V31-DAQ
  26 GE+1/1/10-X5V31-DAQ
  27 GE+1/1/11-X5V31-DAQ
  28 GE+1/1/12-X5V31-DAQ

  29 ---
  30 ---
  31 ---
  32 ---

  33 GE11-X5-PLUS-DAQ-7
  34 ---
  35 GE11-X5-PLUS-DAQ-8
  36 GE11-X5-PLUS-DAQ-9
  37 GE11-X5-PLUS-TRIG-3
  38 ---
  39 GE+1/1/13-X5V31-DAQ
  40 GE+1/1/14-X5V31-DAQ
  41 GE+1/1/15-X5V31-DAQ
  42 GE+1/1/16-X5V31-DAQ
  43 GE+1/1/17-X5V31-DAQ
  44 GE+1/1/18-X5V31-DAQ

  45 ---
  46 ---
  47 ---
  48 ---

X2J33-47 (GE11_DAQ_PP_X2J31_PLUS)

  1  GE11-X2-PLUS-DAQ-1
  2  ---
  3  GE11-X2-PLUS-DAQ-2
  4  GE11-X2-PLUS-DAQ-3
  5  GE11-X2-PLUS-TRIG-1
  6  ---
  7  GE+1/1/19-X2V31-DAQ
  8  GE+1/1/20-X2V31-DAQ
  9  GE+1/1/21-X2V31-DAQ
  10 GE+1/1/22-X2V31-DAQ
  11 GE+1/1/23-X2V31-DAQ
  12 GE+1/1/24-X2V31-DAQ

  13 ---
  14 ---
  15 ---
  16 ---

  17 GE11-X2-PLUS-DAQ-4
  18 --
  19 GE11-X2-PLUS-DAQ-5
  20 GE11-X2-PLUS-DAQ-6
  21 GE11-X2-PLUS-TRIG-2
  22 ---
  23 GE+1/1/25-X2V31-DAQ
  24 GE+1/1/26-X2V31-DAQ
  25 GE+1/1/27-X2V31-DAQ
  26 GE+1/1/28-X2V31-DAQ
  27 GE+1/1/29-X2V31-DAQ
  28 GE+1/1/30-X2V31-DAQ

  29 ---
  30 ---
  31 ---
  32 ---

  33 GE11-X2-PLUS-DAQ-7
  34 ---
  35 GE11-X2-PLUS-DAQ-8
  36 GE11-X2-PLUS-DAQ-9
  37 GE11-X2-PLUS-TRIG-3
  38 ---
  39 GE+1/1/31-X2V31-DAQ
  40 GE+1/1/32-X2V31-DAQ
  41 GE+1/1/33-X2V31-DAQ
  42 GE+1/1/34-X2V31-DAQ
  43 GE+1/1/35-X2V31-DAQ
  44 GE+1/1/36-X2V31-DAQ

  45 ---
  46 ---
  47 ---
  48 ---

X2J33-46

  Left  GE+2/1/16/Ly2-X2J33-DAQ (connected to chamber GE+2/1/16/Ly1)
  Right GE11-X2-PLUS-SPARE-3

##########
# USC PP #
##########

S2E01-31 (MTP48 breakout)

  -- MTP24
  01 GE11-X5-MINUS-TRIG-1
  03 GE11-X5-MINUS-TRIG-2
  05 GE11-X5-MINUS-TRIG-3
  07 GE11-X2-MINUS-TRIG-1
  09 GE11-X2-MINUS-TRIG-2
  11 GE11-X2-MINUS-TRIG-3
  13 GE11-X5-PLUS-TRIG-1
  15 GE11-X5-PLUS-TRIG-2
  17 GE11-X5-PLUS-TRIG-3
  19 GE11-X2-PLUS-TRIG-1
  21 GE11-X2-PLUS-TRIG-2
  23 GE11-X2-PLUS-TRIG-3

  -- MTP12
  01 7
  03 8
  05 9
  07 10
  09 11
  11 12
  13 1
  15 2
  17 3
  19 4
  21 5
  23 6

  -- LC #1
   1 switch port 0:1
   2 switch port 0:3
   3 switch port 2:1
   4 switch port 2:3
   5 switch port 4:1
   6 switch port 4:3
   7 switch port 0:0
   8 switch port 0:2
   9 switch port 2:0
  10 switch port 2:2
  11 switch port 4:0
  12 switch port 4:2

###########
# UXC FED #
###########

S2E01-23 (GEM- -- FED 1467)

  AMC01 (GE11-M-01 -> GE11-M-06)
    GE11-X5-MINUS-DAQ-1, GE11-X5-MINUS-DAQ-2, GE11-X5-MINUS-DAQ-3, GE11/TRIG/CTP7/01/Minus (from top to bottom)

  AMC03 (GE11-M-07 -> GE11-M-12)
    GE11-X5-MINUS-DAQ-4, GE11-X5-MINUS-DAQ-5, GE11-X5-MINUS-DAQ-6, GE11/TRIG/CTP7/02/Minus (from top to bottom)

  AMC05 (GE11-M-13 -> GE11-M-18)
    GE11-X5-MINUS-DAQ-7, GE11-X5-MINUS-DAQ-8, GE11-X5-MINUS-DAQ-9, GE11/TRIG/CTP7/03/Minus (from top to bottom)

  AMC07 (GE11-M-19 -> GE11-M-24)
    GE11-X2-MINUS-SPARE-1, GE11-X2-MINUS-DAQ-2, GE11-X2-MINUS-DAQ-3, GE11/TRIG/CTP7/04/Minus (from top to bottom)

  AMC09 (GE11-M-25 -> GE11-M-30)
    GE11-X2-MINUS-DAQ-4, GE11-X2-MINUS-DAQ-5, GE11-X2-MINUS-DAQ-6, GE11/TRIG/CTP7/05/Minus (from top to bottom)

  AMC11 (GE11-M-31 -> GE11-M-36)
    GE11-X2-MINUS-DAQ-7, GE11-X2-MINUS-SPARE-2, GE11-X2-MINUS-DAQ-9, GE11/TRIG/CTP7/06/Minus (from top to bottom)

  AMC13
    TTC -- GEM S2E01-23 (A top/B bottom)
    DAQ -- S2E01-23-1

S2E01-14 (GEM+ -- FED 1468)

  AMC01 (GE11-P-01 -> GE11-P-06)
    GE11-X5-PLUS-DAQ-1, GE11-X5-PLUS-DAQ-2, GE11-X5-PLUS-DAQ-3, GE11/TRIG/CTP7/07/Plus (from top to bottom)

  AMC03 (GE11-P-07 -> GE11-P-12)
    GE11-X5-PLUS-DAQ-4, GE11-X5-PLUS-DAQ-5, GE11-X5-PLUS-DAQ-6, GE11/TRIG/CTP7/08/Plus (from top to bottom)

  AMC05 (GE11-P-13 -> GE11-P-18)
    GE11-X5-PLUS-DAQ-7, GE11-X5-PLUS-DAQ-8, GE11-X5-PLUS-DAQ-9, GE11/TRIG/CTP7/09/Plus (from top to bottom)

  AMC07 (GE11-P-19 -> GE11-P-24)
    GE11-X2-PLUS-DAQ-1, GE11-X2-PLUS-DAQ-2, GE11-X2-PLUS-DAQ-3, GE11/TRIG/CTP7/10/Plus (from top to bottom)

  AMC09 (GE11-P-25 -> GE11-P-30)
    GE11-X2-PLUS-DAQ-4, GE11-X2-PLUS-DAQ-5, GE11-X2-PLUS-DAQ-6, GE11/TRIG/CTP7/11/Plus (from top to bottom)

  AMC11 (GE11-P-31 -> GE11-P-36)
    GE11-X2-PLUS-DAQ-7, GE11-X2-PLUS-DAQ-8, GE11-X2-PLUS-DAQ-9, GE11/TRIG/CTP7/12/Plus (from top to bottom)

  AMC13
    TTC -- GEM S2E01-spare (B top/A bottom)
    DAQ -- S2E01-23-Spa

S2E01-04 (GEMPILOT -- FED1469)

  AMC01
    GE11-X2-PLUS-SPARE-3, GE11-X2-MINUS-SPARE-3, GE11-X2-MINUS-SPARE-4, MTP48 breakout (*) (from top to bottom)

  AMC13
    TTC -- [yellow, no label] (B top/A bottom)
    DAQ -- S2F10-18L-2

  (*) fiber #11 -- switch port 6:0
